[gd_scene load_steps=4 format=3 uid="uid://cnwjjib1fpwfr"]

[ext_resource type="Texture2D" uid="uid://coha5dylymywu" path="res://assets/laser_effect.png" id="1_nd2re"]
[ext_resource type="Script" path="res://character/laser.gd" id="1_y52hh"]

[sub_resource type="RectangleShape2D" id="RectangleShape2D_4wpcs"]
size = Vector2(18, 40)

[node name="Laser" type="Area2D"]
collision_layer = 2
script = ExtResource("1_y52hh")

[node name="Sprite2D" type="Sprite2D" parent="."]
rotation = 1.5708
scale = Vector2(0.05, 0.05)
texture = ExtResource("1_nd2re")

[node name="CollisionShape2D" type="CollisionShape2D" parent="."]
shape = SubResource("RectangleShape2D_4wpcs")
