[gd_scene load_steps=6 format=3 uid="uid://ctadhn1dqmf1q"]

[ext_resource type="Texture2D" uid="uid://bqvgxav58frkg" path="res://assets/player.png" id="1_cmumx"]
[ext_resource type="Script" path="res://character/player.gd" id="1_iro5k"]
[ext_resource type="Script" path="res://character/Barrel.gd" id="3_tu6wt"]
[ext_resource type="PackedScene" uid="uid://cnwjjib1fpwfr" path="res://character/laser.tscn" id="4_xbmiw"]

[sub_resource type="RectangleShape2D" id="RectangleShape2D_b8jju"]
size = Vector2(60, 25)

[node name="Player" type="Area2D"]
position = Vector2(178, 112)
script = ExtResource("1_iro5k")

[node name="Sprite2D" type="Sprite2D" parent="."]
texture = ExtResource("1_cmumx")

[node name="CollisionShape2D" type="CollisionShape2D" parent="."]
position = Vector2(0, 2.5)
shape = SubResource("RectangleShape2D_b8jju")

[node name="Barrel" type="Node2D" parent="."]
position = Vector2(0, -10)
script = ExtResource("3_tu6wt")
laserScene = ExtResource("4_xbmiw")
